3 Actually Getting Flight Data (feat. httr2) – fleetR: Airline Fleet Explorer Documentation
…
read_csv("data/flight_track.csv")

Rows: 60 Columns: 5
── Column specification ────────────────────────────────────────────────────────
Delimiter: ","
chr (2): icao24, callsign
dbl (2): startTime, endTime
lgl (1): path

ℹ Use `spec()` to retrieve the full column specification for this data.
ℹ Specify the column types or set `show_col_types = FALSE` to quiet this message.

# A tibble: 60 × 5
   icao24 callsign  startTime    endTime path 
   <chr>  <chr>         <dbl>      <dbl> <lgl>
 1 a126cc UAL2353  1759356477 1759359956 NA   
 2 a126cc UAL2353  1759356477 1759359956 NA   
 3 a126cc UAL2353  1759356477 1759359956 NA   
 4 a126cc UAL2353  1759356477 1759359956 NA   
 5 a126cc UAL2353  1759356477 1759359956 NA   
 6 a126cc UAL2353  1759356477 1759359956 NA   
 7 a126cc UAL2353  1759356477 1759359956 NA   
 8 a126cc UAL2353  1759356477 1759359956 NA   
 9 a126cc UAL2353  1759356477 1759359956 NA   
10 a126cc UAL2353  1759356477 1759359956 NA   
# ℹ 50 more rows
…
read_csv("data/flight_track_2.csv")

Rows: 60 Columns: 10
── Column specification ────────────────────────────────────────────────────────
Delimiter: ","
chr (2): icao24, callsign
dbl (7): startTime, endTime, path_1, path_2, path_3, path_4, path_5
lgl (1): path_6

ℹ Use `spec()` to retrieve the full column specification for this data.
ℹ Specify the column types or set `show_col_types = FALSE` to quiet this message.

# A tibble: 60 × 10
   icao24 callsign  startTime  endTime path_1 path_2 path_3 path_4 path_5 path_6
   <chr>  <chr>         <dbl>    <dbl>  <dbl>  <dbl>  <dbl>  <dbl>  <dbl> <lgl> 
 1 a126cc UAL2353  1759356477   1.76e9 1.76e9   29.9  -95.3    304    142 FALSE 
 2 a126cc UAL2353  1759356477   1.76e9 1.76e9   29.9  -95.3    304    131 FALSE 
 3 a126cc UAL2353  1759356477   1.76e9 1.76e9   29.9  -95.3    304    124 FALSE 
 4 a126cc UAL2353  1759356477   1.76e9 1.76e9   29.9  -95.3    304    122 FALSE 
 5 a126cc UAL2353  1759356477   1.76e9 1.76e9   29.9  -95.3    304    121 FALSE 
 6 a126cc UAL2353  1759356477   1.76e9 1.76e9   29.9  -95.3    609    123 FALSE 
 7 a126cc UAL2353  1759356477   1.76e9 1.76e9   29.9  -95.3    609    124 FALSE 
 8 a126cc UAL2353  1759356477   1.76e9 1.76e9   29.9  -95.2    914    126 FALSE 
 9 a126cc UAL2353  1759356477   1.76e9 1.76e9   29.9  -95.2   1219    125 FALSE 
10 a126cc UAL2353  1759356477   1.76e9 1.76e9   29.8  -95.2   1524    124 FALSE 
# ℹ 50 more rows
…
